res_submit = "{"data":{"shopId":"5f6d5f9b097fb284aadb77a3","status":"pending","type":"import_product","title":"upload from app","productFileName":"product.xlsx","productFilePath":"/usr/src/app/dist/public/files/product.xlsx","skuCodeManagerFileName":"sku-code-manager.xlsx","skuCodeManagerFilePath":"/usr/src/app/dist/public/files/sku-code-manager.xlsx","variantManagerFileName":"variant-manager.xlsx","variantManagerFielPath":"/usr/src/app/dist/public/files/variant-manager.xlsx","createdAt":"2020-09-28T08:54:08.360Z","updatedAt":"2020-09-28T08:54:08.360Z","id":"5f71a4b00c388a0018f96219"},"status":200,"statusText":"","headers":{"content-length":"569","content-type":"application/json; charset=utf-8"},"config":{"transformRequest":{},"transformResponse":{},"timeout":0,"xsrfCookieName":"XSRF-TOKEN","xsrfHeaderName":"X-XSRF-TOKEN","maxContentLength":-1,"headers":{"Accept":"application/json, text/plain, */*","x-nanostick-token":"eyJhbGciOiJIUzI1NiIsInR5cCI6IkpXVCJ9.eyJzaG9wSWQiOiI1ZjZkNWY5YjA5N2ZiMjg0YWFkYjc3YTMiLCJpYXQiOjE2MDEyNjk5NTksImV4cCI6MTYwMTUyOTE1OX0.M3ZydJp9Hm-fLrd4ZAC6NPBayIzis28CvsnJk4EJWTo"},"method":"post","async":true,"crossDomain":true,"url":"https://nanostcktest.egany.com/api/campaigns","data":{},"processData":false,"contentType":false,"mimeType":"multipart/form-data"},"request":{}}";

var recent_campain = `{"data":{"total":13,"limit":1,"page":1,"totalPages":13,"data":[{"shopId":"5f6d5f9b097fb284aadb77a3","status":"completed","type":"import_product","title":"upload from app","productFileName":"product.xlsx","productFilePath":"/usr/src/app/dist/public/files/product.xlsx","skuCodeManagerFileName":"sku-code-manager.xlsx","skuCodeManagerFilePath":"/usr/src/app/dist/public/files/sku-code-manager.xlsx","variantManagerFileName":"variant-manager.xlsx","variantManagerFielPath":"/usr/src/app/dist/public/files/variant-manager.xlsx","createdAt":"2020-09-27T05:49:26.113Z","updatedAt":"2020-09-27T05:49:34.092Z","totalMappingCollect":3,"totalMappingCollectCompleted":3,"totalMappingImage":2,"totalMappingImageCompleted":2,"totalProductCreate":2,"totalProductCreateComplated":2,"id":"5f7027e60c388a0018f961b9"}]},"status":200,"statusText":"","headers":{"content-length":"793","content-type":"application/json; charset=utf-8"},"config":{"transformRequest":{},"transformResponse":{},"timeout":0,"xsrfCookieName":"XSRF-TOKEN","xsrfHeaderName":"X-XSRF-TOKEN","maxContentLength":-1,"headers":{"Accept":"application/json, text/plain, */*","x-nanostick-token":"eyJhbGciOiJIUzI1NiIsInR5cCI6IkpXVCJ9.eyJzaG9wSWQiOiI1ZjZkNWY5YjA5N2ZiMjg0YWFkYjc3YTMiLCJpYXQiOjE2MDEyNjk5NTksImV4cCI6MTYwMTUyOTE1OX0.M3ZydJp9Hm-fLrd4ZAC6NPBayIzis28CvsnJk4EJWTo","cache-control":"no-cache"},"method":"get","url":"https://nanostcktest.egany.com/api/campaigns?sort=-id&status=completed&limit=1&page=1"},"request":{}}`;


var product_list = `{"data":{"total":2,"limit":10,"page":1,"totalPages":1,"data":[{"rawData":{"collections":["Ốp Iphone Mới","Ốp Iphone Đẹp"],"option1ArrayCode":["0001","0002","0003"],"option2ArrayCode":["0201","0202"],"option3ArrayCode":["01","02","03"],"titleCode":"0001","title2Code":"001","categoryCode":"01","vendor":"NanoStick","description":"<div> Mã mô tả HTML </div>","option1Name":"Tính năng","option1GroupCode":"4","option2Name":"Ốp lưng in","option2GroupCode":"6","option3Name":"Màu sắc","option3GroupCode":"3","tags":"#SALE1, #SALE2, #SALE3","basePrice":0,"baseCompareAtPrice":null},"shopId":"5f6d5f9b097fb284aadb77a3","status":"created","campaignId":"5f6d608b7457fd0018f1274d","title":"iphone 6/6S hoạ tiết Doremon 1","images":[{"hrvImageId":"1165464045","url":"https://product.hstatic.net/1000074001/product/01.0001.01.0001.01.0201.001_f1bf6ad725a44abd9661cb61484c48ed.jpg","name":"01.0001.01.0001.01.0201.001"},{"hrvImageId":"1165464048","url":"https://product.hstatic.net/1000074001/product/01.0001.01.0001.01.0202.001_8f3ea889a57a479988ff5346b46534ac.jpeg","name":"01.0001.01.0001.01.0202.001"}],"variants":[{"id":"1061852267","price":120000,"compareAtPrice":150000,"sku":"01.0001.01.0001.01.0201.001","barcode":"01.0001.01.0001.01.0201.001","option1":"Chống Sốc Chuẩn Mỹ","option2":"Ốp lưng Arsenal","option3":"Trong suốt"},{"id":"1061852268","price":140000,"compareAtPrice":170000,"sku":"01.0001.02.0001.01.0201.001","barcode":"01.0001.02.0001.01.0201.001","option1":"Chống Sốc Chuẩn Mỹ","option2":"Ốp lưng Arsenal","option3":"Trắng"},{"id":"1061852269","price":160000,"compareAtPrice":190000,"sku":"01.0001.03.0001.01.0201.001","barcode":"01.0001.03.0001.01.0201.001","option1":"Chống Sốc Chuẩn Mỹ","option2":"Ốp lưng Arsenal","option3":"Đen"},{"id":"1061852270","price":130000,"compareAtPrice":160000,"sku":"01.0001.01.0001.01.0202.001","barcode":"01.0001.01.0001.01.0202.001","option1":"Chống Sốc Chuẩn Mỹ","option2":"Ốp lưng Bóng rổ","option3":"Trong suốt"},{"id":"1061852271","price":150000,"compareAtPrice":180000,"sku":"01.0001.02.0001.01.0202.001","barcode":"01.0001.02.0001.01.0202.001","option1":"Chống Sốc Chuẩn Mỹ","option2":"Ốp lưng Bóng rổ","option3":"Trắng"},{"id":"1061852272","price":170000,"compareAtPrice":200000,"sku":"01.0001.03.0001.01.0202.001","barcode":"01.0001.03.0001.01.0202.001","option1":"Chống Sốc Chuẩn Mỹ","option2":"Ốp lưng Bóng rổ","option3":"Đen"},{"id":"1061852273","price":180000,"compareAtPrice":210000,"sku":"01.0001.01.0002.01.0201.001","barcode":"01.0001.01.0002.01.0201.001","option1":"Silicon Viền Màu","option2":"Ốp lưng Arsenal","option3":"Trong suốt"},{"id":"1061852274","price":200000,"compareAtPrice":230000,"sku":"01.0001.02.0002.01.0201.001","barcode":"01.0001.02.0002.01.0201.001","option1":"Silicon Viền Màu","option2":"Ốp lưng Arsenal","option3":"Trắng"},{"id":"1061852276","price":220000,"compareAtPrice":250000,"sku":"01.0001.03.0002.01.0201.001","barcode":"01.0001.03.0002.01.0201.001","option1":"Silicon Viền Màu","option2":"Ốp lưng Arsenal","option3":"Đen"},{"id":"1061852277","price":190000,"compareAtPrice":220000,"sku":"01.0001.01.0002.01.0202.001","barcode":"01.0001.01.0002.01.0202.001","option1":"Silicon Viền Màu","option2":"Ốp lưng Bóng rổ","option3":"Trong suốt"},{"id":"1061852278","price":210000,"compareAtPrice":240000,"sku":"01.0001.02.0002.01.0202.001","barcode":"01.0001.02.0002.01.0202.001","option1":"Silicon Viền Màu","option2":"Ốp lưng Bóng rổ","option3":"Trắng"},{"id":"1061852279","price":230000,"compareAtPrice":260000,"sku":"01.0001.03.0002.01.0202.001","barcode":"01.0001.03.0002.01.0202.001","option1":"Silicon Viền Màu","option2":"Ốp lưng Bóng rổ","option3":"Đen"},{"id":"1061852280","price":0,"compareAtPrice":0,"sku":"01.0001.01.0003.01.0201.001","barcode":"01.0001.01.0003.01.0201.001","option1":"Slicon Màu - Dẻo","option2":"Ốp lưng Arsenal","option3":"Trong suốt"},{"id":"1061852281","price":0,"compareAtPrice":0,"sku":"01.0001.02.0003.01.0201.001","barcode":"01.0001.02.0003.01.0201.001","option1":"Slicon Màu - Dẻo","option2":"Ốp lưng Arsenal","option3":"Trắng"},{"id":"1061852282","price":0,"compareAtPrice":0,"sku":"01.0001.03.0003.01.0201.001","barcode":"01.0001.03.0003.01.0201.001","option1":"Slicon Màu - Dẻo","option2":"Ốp lưng Arsenal","option3":"Đen"},{"id":"1061852284","price":0,"compareAtPrice":0,"sku":"01.0001.01.0003.01.0202.001","barcode":"01.0001.01.0003.01.0202.001","option1":"Slicon Màu - Dẻo","option2":"Ốp lưng Bóng rổ","option3":"Trong suốt"},{"id":"1061852285","price":0,"compareAtPrice":0,"sku":"01.0001.02.0003.01.0202.001","barcode":"01.0001.02.0003.01.0202.001","option1":"Slicon Màu - Dẻo","option2":"Ốp lưng Bóng rổ","option3":"Trắng"},{"id":"1061852286","price":0,"compareAtPrice":0,"sku":"01.0001.03.0003.01.0202.001","barcode":"01.0001.03.0003.01.0202.001","option1":"Slicon Màu - Dẻo","option2":"Ốp lưng Bóng rổ","option3":"Đen"}],"options":[],"createdAt":"2020-09-25T03:14:20.330Z","updatedAt":"2020-09-25T03:14:27.736Z","hrvProductId":"1028310492","id":"5f6d608c7457fd0018f1274e"},{"rawData":{"collections":["Ốp Iphone Mới"],"option1ArrayCode":["0001","0002","0003"],"option2ArrayCode":["0201","0202"],"option3ArrayCode":["01","02","03"],"titleCode":"0002","title2Code":"002","categoryCode":"01","vendor":"NanoStick","description":"<div> Mã mô tả HTML </div>","option1Name":"Tính năng","option1GroupCode":"4","option2Name":"Ốp lưng in","option2GroupCode":"6","option3Name":"Màu sắc","option3GroupCode":"3","tags":"#SALE1, #SALE2, #SALE3","basePrice":0,"baseCompareAtPrice":null},"shopId":"5f6d5f9b097fb284aadb77a3","status":"created","campaignId":"5f6d608b7457fd0018f1274d","title":"iphone 6P/6SP hoạ tiết Doremon 2","images":[],"variants":[{"id":"1061852289","price":0,"compareAtPrice":0,"sku":"01.0002.01.0001.01.0201.002","barcode":"01.0002.01.0001.01.0201.002","option1":"Chống Sốc Chuẩn Mỹ","option2":"Ốp lưng Arsenal","option3":"Trong suốt"},{"id":"1061852290","price":0,"compareAtPrice":0,"sku":"01.0002.02.0001.01.0201.002","barcode":"01.0002.02.0001.01.0201.002","option1":"Chống Sốc Chuẩn Mỹ","option2":"Ốp lưng Arsenal","option3":"Trắng"},{"id":"1061852291","price":0,"compareAtPrice":0,"sku":"01.0002.03.0001.01.0201.002","barcode":"01.0002.03.0001.01.0201.002","option1":"Chống Sốc Chuẩn Mỹ","option2":"Ốp lưng Arsenal","option3":"Đen"},{"id":"1061852292","price":0,"compareAtPrice":0,"sku":"01.0002.01.0001.01.0202.002","barcode":"01.0002.01.0001.01.0202.002","option1":"Chống Sốc Chuẩn Mỹ","option2":"Ốp lưng Bóng rổ","option3":"Trong suốt"},{"id":"1061852293","price":0,"compareAtPrice":0,"sku":"01.0002.02.0001.01.0202.002","barcode":"01.0002.02.0001.01.0202.002","option1":"Chống Sốc Chuẩn Mỹ","option2":"Ốp lưng Bóng rổ","option3":"Trắng"},{"id":"1061852294","price":0,"compareAtPrice":0,"sku":"01.0002.03.0001.01.0202.002","barcode":"01.0002.03.0001.01.0202.002","option1":"Chống Sốc Chuẩn Mỹ","option2":"Ốp lưng Bóng rổ","option3":"Đen"},{"id":"1061852295","price":0,"compareAtPrice":0,"sku":"01.0002.01.0002.01.0201.002","barcode":"01.0002.01.0002.01.0201.002","option1":"Silicon Viền Màu","option2":"Ốp lưng Arsenal","option3":"Trong suốt"},{"id":"1061852296","price":0,"compareAtPrice":0,"sku":"01.0002.02.0002.01.0201.002","barcode":"01.0002.02.0002.01.0201.002","option1":"Silicon Viền Màu","option2":"Ốp lưng Arsenal","option3":"Trắng"},{"id":"1061852297","price":0,"compareAtPrice":0,"sku":"01.0002.03.0002.01.0201.002","barcode":"01.0002.03.0002.01.0201.002","option1":"Silicon Viền Màu","option2":"Ốp lưng Arsenal","option3":"Đen"},{"id":"1061852298","price":0,"compareAtPrice":0,"sku":"01.0002.01.0002.01.0202.002","barcode":"01.0002.01.0002.01.0202.002","option1":"Silicon Viền Màu","option2":"Ốp lưng Bóng rổ","option3":"Trong suốt"},{"id":"1061852299","price":0,"compareAtPrice":0,"sku":"01.0002.02.0002.01.0202.002","barcode":"01.0002.02.0002.01.0202.002","option1":"Silicon Viền Màu","option2":"Ốp lưng Bóng rổ","option3":"Trắng"},{"id":"1061852300","price":0,"compareAtPrice":0,"sku":"01.0002.03.0002.01.0202.002","barcode":"01.0002.03.0002.01.0202.002","option1":"Silicon Viền Màu","option2":"Ốp lưng Bóng rổ","option3":"Đen"},{"id":"1061852301","price":0,"compareAtPrice":0,"sku":"01.0002.01.0003.01.0201.002","barcode":"01.0002.01.0003.01.0201.002","option1":"Slicon Màu - Dẻo","option2":"Ốp lưng Arsenal","option3":"Trong suốt"},{"id":"1061852302","price":0,"compareAtPrice":0,"sku":"01.0002.02.0003.01.0201.002","barcode":"01.0002.02.0003.01.0201.002","option1":"Slicon Màu - Dẻo","option2":"Ốp lưng Arsenal","option3":"Trắng"},{"id":"1061852303","price":0,"compareAtPrice":0,"sku":"01.0002.03.0003.01.0201.002","barcode":"01.0002.03.0003.01.0201.002","option1":"Slicon Màu - Dẻo","option2":"Ốp lưng Arsenal","option3":"Đen"},{"id":"1061852304","price":0,"compareAtPrice":0,"sku":"01.0002.01.0003.01.0202.002","barcode":"01.0002.01.0003.01.0202.002","option1":"Slicon Màu - Dẻo","option2":"Ốp lưng Bóng rổ","option3":"Trong suốt"},{"id":"1061852305","price":0,"compareAtPrice":0,"sku":"01.0002.02.0003.01.0202.002","barcode":"01.0002.02.0003.01.0202.002","option1":"Slicon Màu - Dẻo","option2":"Ốp lưng Bóng rổ","option3":"Trắng"},{"id":"1061852306","price":0,"compareAtPrice":0,"sku":"01.0002.03.0003.01.0202.002","barcode":"01.0002.03.0003.01.0202.002","option1":"Slicon Màu - Dẻo","option2":"Ốp lưng Bóng rổ","option3":"Đen"}],"options":[],"createdAt":"2020-09-25T03:14:20.331Z","updatedAt":"2020-09-25T03:14:27.759Z","hrvProductId":"1028310495","id":"5f6d608c7457fd0018f1274f"}]},"status":200,"statusText":"","headers":{"content-length":"1421","content-type":"application/json; charset=utf-8"},"config":{"transformRequest":{},"transformResponse":{},"timeout":0,"xsrfCookieName":"XSRF-TOKEN","xsrfHeaderName":"X-XSRF-TOKEN","maxContentLength":-1,"headers":{"Accept":"application/json, text/plain, */*","x-nanostick-token":"eyJhbGciOiJIUzI1NiIsInR5cCI6IkpXVCJ9.eyJzaG9wSWQiOiI1ZjZkNWY5YjA5N2ZiMjg0YWFkYjc3YTMiLCJpYXQiOjE2MDEyNjk5NTksImV4cCI6MTYwMTUyOTE1OX0.M3ZydJp9Hm-fLrd4ZAC6NPBayIzis28CvsnJk4EJWTo","cache-control":"no-cache","Postman-Token":"6e87da5a-3d49-41ea-a352-146834b3b422"},"method":"get","url":"https://nanostcktest.egany.com/api/products-progress?campaignId=5f6d608b7457fd0018f1274d&limit=10"},"request":{}}`;